{
  "name": "",
  "css_prefix_text": "icon-",
  "css_use_suffix": false,
  "hinting": true,
  "units_per_em": 1000,
  "ascent": 850,
  "glyphs": [
    {
      "uid": "35388a135de20af49e06ef2df767daee",
      "css": "panda_mark",
      "code": 59392,
      "src": "custom_icons",
      "selected": true,
      "svg": {
        "path": "M224.6 428.5C201.2 473.4 190.4 520.2 185 543.5 181 560.7 182 602.6 214.7 639.7 226.5 653 242.4 665.8 263.7 676.5 302.3 696 323.9 710.6 329.1 713.4M408 707.2C419.7 700.2 447 692.8 471.7 684.6 488.7 679 504.5 673 512.9 666.5 534.8 649.6 565.3 611 568 571.4 569.5 549.3 570.4 514.7 566.5 483.6 563.3 458.8 557.1 436.3 545.5 424 519.4 396.1 537.4 380.8 536.5 377.2M186.4 537.5C187 490.7 192.2 395.2 204.8 377.2M228.2 388.9C218 396.3 166.1 356.5 168.8 314.3 171.5 272 178.7 247.7 204.8 252.2 230.9 256.7 259.6 299 261.4 308.9 263.2 318.8 238 381.7 228.2 388.9ZM478.1 389.8C459.4 386.7 425 354.7 432.2 317 439.4 279.2 471.8 258.5 505.1 262.1 538.3 265.7 565.3 318.8 560.8 346.6 556.3 374.5 527.5 390.7 522.1 389.8 516.7 388.9 494.3 392.5 478.1 389.8ZM287.9 369.2C309.4 358.5 332.4 352 351.3 351.1 370.2 350.2 396.3 354.7 408 366.4M298.3 633.4C299.9 657.8 305.5 696.8 329.1 713.4 332.5 715.9 336.3 717.7 340.5 718.8 373.8 727.8 390.9 726 408 707.2 425 688.3 447.5 633.4 459.2 620.8M325.3 634.3C322.6 648.7 321.7 671 325.3 672.5 328.9 673.9 345 695.5 373.8 689.2 402.6 682.9 398.1 679.9 404.4 665.5 411.4 649.7 415.2 634.3 417.9 625.3M293.3 509.8C278 509.8 259.7 542.4 248.8 554.3 239.4 564.7 279 616.4 291.1 615 303.2 613.7 295.6 598.4 303.2 584 310.9 569.6 316.7 558.4 312.2 533.2 307.7 508 301.9 509.8 293.3 509.8ZM398.5 524.2C393.1 533.6 402.1 554.8 408 562.4 413.8 570.1 433.1 584.9 440.3 596.1 447.5 607.4 475.8 588 476.7 578.1 477.6 568.3 466 518.8 437.6 507.3 409.3 495.9 401.7 518.8 398.5 524.2ZM404.4 665.5C398.1 679.9 402.6 682.9 373.8 689.2 345 695.5 328.9 673.9 325.3 672.5 334.4 663.3 357.6 664.9 365.7 666.7 373.8 668.5 383.6 657.7 404.4 665.5ZM377.6 79.8C403.1 65.5 443.5 29.8 508.9 18.3 574.3 6.9 694.3 21 759.1 99.9 823.8 178.8 841 237 826.5 354.8 818.9 416.6 798.2 471.5 774.8 514.3 752.4 555.2 727.5 585.1 709.1 599.5M241.9 282.6C252.7 242.9 292.5 159.9 323.5 130.9 354.5 101.9 404.4 93.8 424 88.5 443.5 83.1 508.6 53.2 538.9 83.5 569.3 113.9 591.9 160.6 589.8 204.4 587.8 248.3 581.7 315.7 582.4 339.9S589.9 467.4 569.3 483.6H566.5C570.4 514.7 569.5 549.3 568 571.4 565.3 611 534.8 649.6 512.9 666.5 489.3 688.7 479.3 834.8 473.2 856.4 467.1 878 439.5 939.3 438.8 965.6 438.1 991.9 542.6 984.5 569.3 983.2S597.9 968.3 613.4 957.6C621.8 951.7 643.3 907 662.9 860.5 679.7 820.7 695.1 779.6 699.7 760.7 709.8 719.5 709.1 599.5 709.1 599.5 713.2 542.2 739.5 489 747.6 449.8 755.7 410.7 763.1 360.2 737.5 283.3 711.9 206.4 654.6 121.5 596.6 86.4 538.6 51.4 459.7 77.6 438.8 77.7 417.9 77.8 365.3 76.3 345.8 88.5 326.2 100.6 285.7 139 273.1 155.9 260.5 172.7 229.1 246.9 223 266.5L241.9 282.6ZM709.1 599.5C709.1 599.5 709.8 719.5 699.7 760.7 695.1 779.6 679.7 820.7 662.9 860.5 682.7 864.5 691.6 865.2 706.5 860.5 721.3 855.7 760.4 842.9 759.1 806.5 757.7 770.1 774.6 704 782.7 669.7 790.8 635.3 786.7 555.7 774.8 514.3L774.8 514.3C752.4 555.2 727.5 585.1 709.1 599.5ZM411.2 804.5C394.3 765.4 398.5 732.5 404.4 710.8L408 707.2C419.7 700.2 447 692.8 471.7 684.6 474.5 703.2 479.3 714.8 480.6 729S484.6 774.2 454.3 795.7C424 817.3 437.4 818.7 417.9 820L411.2 804.5ZM408 707.2C390.9 726 373.8 727.8 340.5 718.8 336.3 717.7 332.5 715.9 329.1 713.4L329.1 713.4C323.9 710.6 302.3 696 263.7 676.5 242.4 665.8 226.5 653 214.7 639.7V639.7C219 667 245.4 724.9 246 747.9 246.6 770.8 250 791.7 259.5 815.3 268.9 838.9 285.7 872.6 270.9 890.1 256.1 907.7 287.8 907.7 301.3 909S411.1 909 417.9 894.2C424.6 879.3 428 843.6 411.2 804.5 394.3 765.4 398.5 732.5 404.4 710.8L408 707.2Z",
        "width": 1000
      },
      "search": [
        "panda_mark"
      ]
    }
  ]
}